
Errors and Warnings while Loading Component : D:\MSE\XPA471\Add_On\UserFunctionality\UserFunctionality.eci (15/04/21 18:31:26)
==============================================================================================================================
-----------------------------------
